Rush Hour Explorations
…
Uhh, except that really weird horizontal line. Whats going on? Lets look at that interval.

bikeshare %>% 
  filter(temp_celcius > 25 & temp_celcius < 36) %>% 
  filter(feels_like_temp_celcius < 25) %>% 
  select(date_time, temp_celcius, feels_like_temp_celcius)

## # A tibble: 24 x 3
##    date_time           temp_celcius feels_like_temp_celcius
##    <dttm>                     <dbl>                   <dbl>
##  1 2012-08-17 00:00:00         27.9                    12.1
##  2 2012-08-17 01:00:00         27.1                    12.1
##  3 2012-08-17 02:00:00         27.1                    12.1
##  4 2012-08-17 03:00:00         26.2                    12.1
##  5 2012-08-17 04:00:00         26.2                    12.1
##  6 2012-08-17 05:00:00         26.2                    12.1
##  7 2012-08-17 06:00:00         25.4                    12.1
##  8 2012-08-17 07:00:00         26.2                    12.1
##  9 2012-08-17 08:00:00         27.9                    12.1
## 10 2012-08-17 09:00:00         28.7                    12.1
## # ... with 14 more rows
…
